....
----------------------------------------------------------------------
Ran 4 tests in 0.002s

OK
Name               Stmts   Miss Branch BrPart  Cover   Missing
--------------------------------------------------------------
Diplomacy.py         115      1     48      1    99%   45, 18->20
TestDiplomacy.py      26      0      2      1    96%   59->exit
--------------------------------------------------------------
TOTAL                141      1     50      2    98%
