....
----------------------------------------------------------------------
Ran 4 tests in 0.003s

OK
Name               Stmts   Miss Branch BrPart  Cover   Missing
--------------------------------------------------------------
Diplomacy.py         116      0     50      0   100%
TestDiplomacy.py      24      0      0      0   100%
--------------------------------------------------------------
TOTAL                140      0     50      0   100%
