...............
----------------------------------------------------------------------
Ran 15 tests in 0.002s

OK
Name               Stmts   Miss Branch BrPart  Cover   Missing
--------------------------------------------------------------
Diplomacy.py          85      0     52      1    99%   21->23
TestDiplomacy.py     125      0     12      0   100%
--------------------------------------------------------------
TOTAL                210      0     64      1    99%
